<svg xmlns="http://www.w3.org/2000/svg" width="20" height="15" viewBox="0 0 20 15">
  <g id="Group_3423" data-name="Group 3423" transform="translate(0 1.5)">
    <path id="Path_2545" data-name="Path 2545" d="M3,0H23" transform="translate(-3)" fill="rgba(0,0,0,0)" stroke="#fff" stroke-width="3"/>
    <path id="Path_2546" data-name="Path 2546" d="M16,0H27.594" transform="translate(-7.594 5.898)" fill="rgba(0,0,0,0)" stroke="#fff" stroke-width="3"/>
    <path id="Path_2547" data-name="Path 2547" d="M3,0H23" transform="translate(-3 12)" fill="rgba(0,0,0,0)" stroke="#fff" stroke-width="3"/>
  </g>
</svg>
